id,image,event_id,cover_image
1,event1.jpg,1,1
2,event2.jpg,2,2
3,event3.jpg,3,3
4,event4.jpg,4,4
5,event5.jpg,5,5
6,event6.jpg,6,6
7,event7.jpg,7,7
8,event8.jpg,8,8
9,event9.jpg,9,9
10,event10.jpg,10,10