admin_id,availability,date,title,meeting_address,type,ppl,map_x,map_y,description
2,1,2021-08-04 13:00:00+08,2人合租,上水龍琛路體育館,運動與健身,4,22.5050106,114.1284418,see you
2,1,2021-08-04 18:00:00+08,90後想搵2個女仔夾,帝逸酒店,遊戲,4,22.3887342,114.1645536,到時見
3,1,2021-09-04 20:00:00+08,夾一個返夜班既,24/7 Fitness Tsuen Wan,運動與健身,2,22.3688455,114.1130724,see you
3,1,2021-09-05 20:00:00+08,"出黎見下面,搵potential Roomate",美林體育館,運動與健身,4,22.379063,114.1733873,到時見
4,1,2021-09-08 20:00:00+08,中大附近三人合,沙田凱悅酒店,遊戲,4,22.297802,114.173548,到時見
5,1,2021-09-01 20:00:00+08,唔一齊打過機點知夾唔夾,2000Fun遊戲店(荃灣),遊戲,4,22.3691987,114.1059192,see you
6,1,2021-08-29 18:00:00+08,打羽毛球,大埔墟體育館,運動與健身,4,22.4463606,114.1640119,到時見
6,1,2021-09-20 20:00:00+08,見左面再講,美林體育館,運動與健身,4,22.379063,114.1733873,see you
7,1,2021-09-24 18:00:00+08,LOL,沙田凱悅酒店,遊戲,4,22.297802,114.173548,到時見
7,1,2021-10-04 18:00:00+08,三國殺,Capstone Boardgame,遊戲,8,22.279441,114.1466651,see you