<svg width="94" height="45" viewBox="0 0 94 45" fill="none" xmlns="http://www.w3.org/2000/svg">
<g id="nav-home">
<text id="&#233;&#166;&#150;&#233;&#160;&#129;" fill="white" xml:space="preserve" style="white-space: pre" font-family="Roboto" font-size="14" letter-spacing="0em"><tspan x="32.7814" y="37.2852">&#x9996;&#x9801;</tspan></text>
<g id="Vector">
<path d="M44.75 6.58333L47 4.16667L53.0833 10.8333H57L47 0L37 10.8333H40.3333V20H53.6667V13.3333" fill="black" fill-opacity="0.08"/>
<path d="M44.75 6.58333L47 4.16667L53.0833 10.8333H57L47 0L37 10.8333H40.3333V20H53.6667V13.3333" stroke="white" stroke-width="1.5" stroke-miterlimit="10" stroke-linecap="round" stroke-linejoin="round"/>
</g>
</g>
</svg>
